{"name": "theme song",
    "slides": [
        {
            "type": "animSound",
            "text": "^start(animations/Stand/Gestures/Hey_1) ^wait(animations/Stand/Gestures/Hey_1)",
            "sound": "TS_Tamil_step1_1.ogg",
            "sound_type": "default"
          }
          ,{
            "type": "animSound",
            "text": "^start(animations/Stand/Gestures/Hey_2) ^wait(animations/Stand/Gestures/Hey_2)",
            "sound": "TS_Tamil_step1_2.ogg",
            "sound_type": "default"
          },
          {
            "type": "animSound",
            "text": "^start(animations/Stand/Gestures/Hey_10) ^wait(animations/Stand/Gestures/Hey_10)",
            "sound": ["TS_Tamil_step1_3_1.ogg","TS_Tamil_step1_3_2.ogg"],
            "sound_type": "default"
          }
    ]

}