{
  "name": "roleplay",
  "slides": [
    {
      "type": "tablet",
      "tablet_type": "appIcon"
    },
    {
      "type": "animSay",
      "text": "^start(animations/Stand/Gestures/Hey_1) 哈啰，你好！ ^wait(animations/Stand/Gestures/Hey_1)"
    },
    {
      "type": "pause",
      "duration": 2
    },
    {
      "type": "animation",
      "src": "cgh-main/animations/roleplay/S6_Hungry_Growling"
    },
    {
      "type": "animSay",
      "text": "我肚子了！我还没吃午餐，你们呢？"
    },
    {
      "type": "pause",
      "duration": 4
    },
    {
      "type": "tablet",
      "tablet_type": "image",
      "src": "<main_food_image>"
    },
    {
      "type": "animSay",
      "text": "^start(animations/Stand/Gestures/ShowTablet_1) 我今天想吃<main_food_text>！ ^wait(animations/Stand/Gestures/ShowTablet_1)"
    },
    {
      "type": "pause",
      "duration": 2
    },
    {
      "type": "animSay",
      "text": "你们吃过<main_food_text>吗？"
    },
    {
      "type": "pause",
      "duration": 8
    },
    {
      "type": "animSay",
      "text": "我需要什么来准备我的午餐呢？"
    },
    {
      "type": "pause",
      "duration": 8
    },
    {
      "type": "tablet",
      "tablet_type": "image",
      "src": "ntuc_fairprice.jpg"
    },
    {
      "type": "animSay",
      "text": "^start(animations/Stand/Gestures/ShowSky_5) 首先，我得去超级市场购买蛋炒饭的材料 ^wait(animations/Stand/Gestures/ShowSky_5)"
    },
    {
      "type": "pause",
      "duration": 2
    },
    {
      "type": "tablet",
      "tablet_type": "image",
      "src": "wok_stir_fry.jpg"
    },
    {
      "type": "animSay",
      "text": "^start(animations/Stand/Gestures/ShowTablet_1) 然后我再准备我的<main_food_text> ^wait(animations/Stand/Gestures/ShowTablet_1)"
    },
    {
      "type": "pause",
      "duration": 2
    },
    {
      "type": "tablet",
      "tablet_type": "image",
      "src": "<main_food_image>"
    },
    {
      "type": "animSay",
      "text": "这样， 就可以吃我的<main_food_text>了！"
    },
    {
      "type": "pause",
      "duration": 4
    },
    {
      "type": "tablet",
      "tablet_type": "image",
      "src": "ntuc_fairprice.jpg"
    },
    {
      "type": "animSay",
      "text": "^start(animations/Stand/Gestures/ShowSky_5) 好的！我们就到超级市场买食材吧！ ^wait(animations/Stand/Gestures/ShowSky_5)"
    },
    {
      "type": "pause",
      "duration": 2
    },
    {
      "type": "animSay",
      "text": "我们到职总平价超市吧！他们应该有我需要的食材"
    },
    {
      "type": "pause",
      "duration": 2
    },
    {
      "type": "tablet",
      "tablet_type": "image",
      "src": "ntuc_1973.jpg"
    },
    {
      "type": "animSay",
      "text": "^start(animations/Stand/Gestures/ShowTablet_1) 原来往日的职总平价超市是这样的！你们记得吗？ ^wait(animations/Stand/Gestures/ShowTablet_1)"
    },
    {
      "type": "pause",
      "duration": 2
    },
    {
      "type": "tablet",
      "tablet_type": "image",
      "src": "ntuc_fairprice.jpg"
    },
    {
      "type": "animSay",
      "text": "好的！我们出发吧！"
    },
    {
      "type": "animation",
      "src": "cgh-main/animations/roleplay/S3_Walking_Sounds"
    },
    {
      "type": "animSay",
      "text": "我已经到超市了。这地方好大好大！"
    },
    {
      "type": "pause",
      "duration": 2
    },
    {
      "type": "sound",
      "src": "A6-Arrive-at-supermarket.ogg"
    },
    {
      "type": "animSay",
      "text": "你们去过职总平价超市吗？"
    },
    {
      "type": "pause",
      "duration": 6
    },
    {
      "type": "animSay",
      "text": "这是我的第一次哦！"
    },
    {
      "type": "pause",
      "duration": 2
    },
    {
      "type": "tablet",
      "tablet_type": "image",
      "src": "<main_ingredient_image>"
    },
    {
      "type": "animSay",
      "text": "我得找摆放<main_ingredient_text>的柜子"
    },
    {
      "type": "pause",
      "duration": 2
    },
    {
      "type": "tablet",
      "tablet_type": "image",
      "src": "<section_collage>"
    },
    {
      "type": "animSay",
      "text": "我应该去<correct_section_text>区还是<wrong_section_text>区呢？"
    },
    {
      "type": "pause",
      "duration": 10
    },
    {
      "type": "tablet",
      "tablet_type": "image",
      "src": "<correct_section_image>"
    },
    {
      "type": "animSay",
      "text": "对了！没错！我应该去<correct_section_text>区"
    },
    {
      "type": "pause",
      "duration": 2
    },
    {
      "type": "tablet",
      "tablet_type": "image",
      "src": "<correct_section_image>"
    },
    {
      "type": "animSay",
      "text": "太好了！我看到我需要的<main_ingredient_text>"
    },
    {
      "type": "animation",
      "src": "cgh-main/animations/roleplay/S3_Walking_Sounds"
    },
    {
      "type": "pause",
      "duration": 1
    },
    {
      "type": "tablet",
      "tablet_type": "image",
      "src": "<first_item_image>"
    },
    {
      "type": "animSay",
      "text": "我身上有<wallet_amount>块钱。这<first_item> 售价<first_item_cost>块钱。我有够钱买吗？"
    },
    {
      "type": "pause",
      "duration": 10
    },
    {
      "type": "animSay",
      "text": "哇！<first_item_cost>块钱比我身上的<wallet_amount> 块钱多"
    },
    {
      "type": "pause",
      "duration": 10
    },
    {
      "type": "tablet",
      "tablet_type": "image",
      "src": "red_x.jpg"
    },
    {
      "type": "animSay",
      "text": "糟糕了。我不够钱买<first_item>"
    },
    {
      "type": "pause",
      "duration": 6
    },
    {
      "type": "tablet",
      "tablet_type": "image",
      "src": "<second_item_image>"
    },
    {
      "type": "animSay",
      "text": "那我身上的<wallet_amount>块钱足够买价格<second_item_cost>块的<second_item>吗？"
    },
    {
      "type": "pause",
      "duration": 10
    },
    {
      "type": "animSay",
      "text": "让我想想。啊！ <second_item_cost>块钱比我有的<wallet_amount>块钱少"
    },
    {
      "type": "pause",
      "duration": 10
    },
    {
      "type": "tablet",
      "tablet_type": "image",
      "src": "check_mark.jpg"
    },
    {
      "type": "animSay",
      "text": "是的！原来我可以买<second_item>！"
    },
    {
      "type": "pause",
      "duration": 3
    },
    {
      "type": "tablet",
      "tablet_type": "image",
      "src": "cashier.jpg"
    },
    {
      "type": "animSay",
      "text": "谢谢你！那我到收银台还钱吧"
    },
    {
      "type": "sound",
      "src": "A18-Go-to-Cashier.ogg"
    },
    {
      "type": "pause",
      "duration": 2
    },
    {
      "type": "animSay",
      "text": "这些东西总共是<second_item_cost>块钱。如果我给 <wallet_amount>块钱的话，我会找回多少钱呢？"
    },
    {
      "type": "pause",
      "duration": 10
    },
    {
      "type": "tablet",
      "tablet_type": "text",
      "text": "$<wallet_amount> - $<second_item_cost> = $<change_amount>",
      "font_size": "25vh"
    },
    {
      "type": "animSay",
      "text": "<wallet_amount>减<second_item_cost>会剩下<change_amount>块钱"
    },
    {
      "type": "pause",
      "duration": 10
    },
    {
      "type": "animSay",
      "text": "对了！那我会找回<change_amount>块钱"
    },
    {
      "type": "pause",
      "duration": 2
    },
    {
      "type": "sound",
      "src": "A23-Cashier-Tiller.ogg"
    },
    {
      "type": "tablet",
      "tablet_type": "image",
      "src": "<main_ingredient_image>"
    },
    {
      "type": "animSay",
      "text": "太好了！所有的食材都买齐了"
    },
    {
      "type": "pause",
      "duration": 2
    },
    {
      "type": "animSay",
      "text": "谢谢你们的帮忙！"
    },
    {
      "type": "pause",
      "duration": 4
    },
    {
      "type": "tablet",
      "tablet_type": "image",
      "src": "HDB.jpg"
    },
    {
      "type": "animSay",
      "text": "^start(cgh-main/animations/roleplay/S3_Walking_Sounds) 我们开始准备<main_food_text>吧 ^wait(cgh-main/animations/roleplay/S3_Walking_Sounds)"
    },
    {
      "type": "pause",
      "duration": 5
    },
    {
      "type": "tablet",
      "tablet_type": "image",
      "src": "kitchen.jpg"
    },
    {
      "type": "animSay",
      "text": "我到家了！那我们到厨房去吧！"
    },
    {
      "type": "pause",
      "duration": 5
    },
    {
      "type": "tablet",
      "tablet_type": "image",
      "src": "<main_food_image>"
    },
    {
      "type": "animSay",
      "text": "我们开始准备蛋炒饭吧"
    },
    {
      "type": "pause",
      "duration": 3
    },
    {
      "type": "animSay",
      "text": "我们需要准备主要食材。我已经有刚刚在超级市场购买的鸡蛋"
    },
    {
      "type": "pause",
      "duration": 3
    },
    {
      "type": "tablet",
      "tablet_type": "image",
      "src": "collage_4.jpg"
    },
    {
      "type": "animSay",
      "text": "我应该使用面条还是米饭？"
    },
    {
      "type": "pause",
      "duration": 10
    },
    {
      "type": "tablet",
      "tablet_type": "image",
      "src": "rice.jpg"
    },
    {
      "type": "animSay",
      "text": "是的，没错！我会使用<food_type>。因为我准备的是<main_food_text>"
    },
    {
      "type": "pause",
      "duration": 5
    },
    {
      "type": "tablet",
      "tablet_type": "image",
      "src": "wok_at_tze_char_setting.jpg"
    },
    {
      "type": "animSay",
      "text": "我会使用炒锅来准备<main_food_text>！你们用过炒锅吗？"
    },
    {
      "type": "pause",
      "duration": 5
    },
    {
      "type": "animSay",
      "text": "炒锅好像蛮重的。所以我们得小心一点！"
    },
    {
      "type": "pause",
      "duration": 5
    },
    {
      "type": "animSay",
      "text": "首先，我们在炒锅里加点食用油"
    },
    {
      "type": "tablet",
      "tablet_type": "image",
      "src": "oil_pour.jpg"
    },
    {
      "type": "animation",
      "src": "cgh-main/animations/roleplay/S5_pouring"
    },
    {
      "type": "pause",
      "duration": 2
    },
    {
      "type": "tablet",
      "tablet_type": "image",
      "src": "<ingredient_collage>"
    },
    {
      "type": "animSay",
      "text": "炒锅已经热起来了。\\pau=1000\\ 我应该先放 <correct_ingredient_text> 还是 <wrong_ingredient_text>呢？"
    },
    {
      "type": "pause",
      "duration": 10
    },
    {
      "type": "tablet",
      "tablet_type": "image",
      "src": "<correct_ingredient_image>"
    },
    {
      "type": "animSay",
      "text": " 那就对了！我应该先放<correct_ingredient_text>！"
    },
    {
      "type": "animation",
      "src": "cgh-main/animations/roleplay/S4_Frying_egg_fried_rice"
    },
    {
      "type": "tablet",
      "tablet_type": "image",
      "src": "<main_food_image>"
    },
    {
      "type": "animSay",
      "text": "<main_food_text>已经炒好了！香味扑鼻而来哦！"
    },
    {
      "type": "pause",
      "duration": 5
    },
    {
      "type": "tablet",
      "tablet_type": "image",
      "src": "<main_food_image>"
    },
    {
      "type": "animSay",
      "text": "我们开动吧！诶。我好像忘记了什么似的。你们知道是什么吗？"
    },
    {
      "type": "pause",
      "duration": 10
    },
    {
      "type": "tablet",
      "tablet_type": "image",
      "src": "wash_hands.jpg"
    },
    {
      "type": "animSay",
      "text": "为了避免我们生病， 我们吃饭前一定得做的！"
    },
    {
      "type": "pause",
      "duration": 10
    },
    {
      "type": "tablet",
      "tablet_type": "image",
      "src": "wash_hands.jpg"
    },
    {
      "type": "animSay",
      "text": "我还没洗手啊！ ^start(cgh-main/animations/roleplay/S7_Washing_hands) 记得要用肥皂洗手！ ^wait(cgh-main/animations/roleplay/S7_Washing_hands)"
    },
    {
      "type": "pause",
      "duration": 5
    },
    {
      "type": "tablet",
      "tablet_type": "image",
      "src": "<main_food_image>"
    },
    {
      "type": "animSay",
      "text": "大功告成！我终于可以好好享受我煮好的<main_food_text>了！"
    },
    {
      "type": "pause",
      "duration": 5
    },
    {
      "type": "animation",
      "src": "cgh-main/animations/roleplay/S8_Eating"
    },
    {
      "type": "animSay",
      "text": "这<main_food_text>好好吃！我太喜欢它的口感了。"
    },
    {
      "type": "pause",
      "duration": 5
    },
    {
      "type": "animSay",
      "text": "<main_food_text>太美味了! 你们喜欢<main_food_text>的那一方面呢？"
    },
    {
      "type": "pause",
      "duration": 10
    },
    {
      "type": "tablet",
      "tablet_type": "image",
      "src": "empty_plate.jpg"
    },
    {
      "type": "animSay",
      "text": "我吃完了！太好吃了！谢谢你们今天的帮忙！没有你们我完成不了今天的任务！"
    },
    {
      "type": "pause",
      "duration": 10
    },
    {
      "type": "tablet",
      "tablet_type": "image",
      "src": "<main_food_image>"
    },
    {
      "type": "animSay",
      "text": "我们今天到了超级市场买了食材，煮了<main_food_text>，洗了手然后品尝我们的杰作！"
    },
    {
      "type": "pause",
      "duration": 5
    },
    {
      "type": "animSay",
      "text": "^start(animations/Stand/Gestures/Hey_1) 下次我们再一起准备另一道菜吧！ ^wait(animations/Stand/Gestures/Hey_1)"
    },
    {
      "type": "pause",
      "duration": 5
    }
  ]
}