{
  "name": "exercises",
  "slides": [
    {
      "type": "image",
      "src": "pepper_name.jpg"
    },
    {
      "type": "animSay",
      "text": "^start(animations/Stand/Gestures/Hey_1) Hello, everyone! I am Pepper! ^wait(animations/Stand/Gestures/Hey_1)"
    },
    {
      "type": "pause",
      "duration": 1
    },
    {
      "type": "animSay",
      "text": "Let's do some exercises together."
    },
    {
      "type": "pause",
      "duration": 1
    },
    {
      "type": "animSay",
      "text": "^start(animations/Stand/Gestures/Joy_1) Are you ready? ^wait(animations/Stand/Gestures/Joy_1)"
    },
    {
      "type": "pause",
      "duration": 3
    },
    {
      "type": "backgroundMusic",
      "src": "rhythm_exercise.ogg"
    },
    {
      "type": "loop",
      "loopParams": "exercisesList",
      "slides": [
        {
          "type": "animSay",
          "text": "Let's do it!;Follow me guys!;Come on everyone!;You are doing great!; Keep it up!;Good job guys!; ; ; ; ; ; ; ; "
        },
        {
          "type": "exerciseLoop",
          "loops": "<exercise_times>",
          "animation": "<exercise_anim>"
        },
        {
          "type": "pause",
          "duration": 2
        }
      ]
    },
    {
      "type": "stopMusic"
    },
    {
      "type": "animSay",
      "text": "Good job!"
    },
    {
      "type": "tablet",
      "tablet_type": "image",
      "src": "SmileyFace.png"
    },
    {
      "type": "animSay",
      "text": "That was fun! Thank you everyone for joining in and see you again!;Well done everyone! Hope you had a great time!"
    },
    {
      "type": "pause",
      "duration": 2
    }
  ]
}