{
  "name": "roleplay",
  "slides": [
    {
      "type": "tablet",
      "tablet_type": "appIcon"
    },
    {
      "type": "animSound",
      "text": "^start(animations/Stand/Gestures/Hey_1) ^wait(animations/Stand/Gestures/Hey_1)",
      "sound": "rp1_malay_1.ogg",
      "sound_type": "default"
    },
    {
      "type": "pause",
      "duration": 2
    },
    {
      "type": "animation",
      "src": "cgh-main/animations/roleplay/S6_Hungry_Growling"
    },
    {
      "type": "animSound",
      "sound": "rp1_malay_2.ogg",
      "sound_type": "default"
    },
    {
      "type": "pause",
      "duration": 4
    },
    {
      "type": "tablet",
      "tablet_type": "image",
      "src": "<main_food_image>"
    },
    {
      "type": "animSound",
      "text": "^start(animations/Stand/Gestures/ShowTablet_1) ^wait(animations/Stand/Gestures/ShowTablet_1)",
      "sound": "rp1_malay_a.ogg",
      "sound_type": "custom"
    },
    {
      "type": "pause",
      "duration": 2
    },
    {
      "type": "animSound",
      "sound": "rp1_malay_b.ogg",
      "sound_type": "custom"
    },
    {
      "type": "pause",
      "duration": 8
    },
    {
      "type": "animSound",
      "sound": "rp1_malay_3.ogg",
      "sound_type": "default"
    },
    {
      "type": "pause",
      "duration": 8
    },
    {
      "type": "tablet",
      "tablet_type": "image",
      "src": "ntuc_fairprice.jpg"
    },
    {
      "type": "animSound",
      "text": "^start(animations/Stand/Gestures/ShowSky_5) ^wait(animations/Stand/Gestures/ShowSky_5)",
      "sound": "rp1_malay_4.ogg",
      "sound_type": "default"
    },
    {
      "type": "pause",
      "duration": 2
    },
    {
      "type": "tablet",
      "tablet_type": "image",
      "src": "wok_stir_fry.jpg"
    },
    {
      "type": "animSound",
      "text": "^start(animations/Stand/Gestures/ShowTablet_1) ^wait(animations/Stand/Gestures/ShowTablet_1)",
      "sound": "rp1_malay_c.ogg",
      "sound_type": "custom"
    },
    {
      "type": "pause",
      "duration": 2
    },
    {
      "type": "tablet",
      "tablet_type": "image",
      "src": "<main_food_image>"
    },
    {
      "type": "animSound",
      "sound": "rp1_malay_d.ogg",
      "sound_type": "custom"
    },
    {
      "type": "pause",
      "duration": 4
    },
    {
      "type": "tablet",
      "tablet_type": "image",
      "src": "ntuc_fairprice.jpg"
    },
    {
      "type": "animSound",
      "text": "^start(animations/Stand/Gestures/ShowSky_5) ^wait(animations/Stand/Gestures/ShowSky_5)",
      "sound": "rp1_malay_5.ogg",
      "sound_type": "default"
    },
    {
      "type": "pause",
      "duration": 2
    },
    {
      "type": "animSound",
      "sound": "rp1_malay_6.ogg",
      "sound_type": "default"
    },
    {
      "type": "pause",
      "duration": 2
    },
    {
      "type": "tablet",
      "tablet_type": "image",
      "src": "ntuc_1973.jpg"
    },
    {
      "type": "animSound",
      "text": "^start(animations/Stand/Gestures/ShowTablet_1) ^wait(animations/Stand/Gestures/ShowTablet_1)",
      "sound": "rp1_malay_7.ogg",
      "sound_type": "default"
    },
    {
      "type": "pause",
      "duration": 2
    },
    {
      "type": "tablet",
      "tablet_type": "image",
      "src": "ntuc_fairprice.jpg"
    },
    {
      "type": "animSound",
      "sound": "rp1_malay_8.ogg",
      "sound_type": "default"
    },
    {
      "type": "animation",
      "src": "cgh-main/animations/roleplay/S3_Walking_Sounds"
    },
    {
      "type": "animSound",
      "sound": "rp1_malay_9.ogg",
      "sound_type": "default"
    },
    {
      "type": "pause",
      "duration": 2
    },
    {
      "type": "sound",
      "src": "A6-Arrive-at-supermarket.ogg"
    },
    {
      "type": "animSound",
      "sound": "rp1_malay_10.ogg",
      "sound_type": "default"
    },
    {
      "type": "pause",
      "duration": 6
    },
    {
      "type": "animSound",
      "sound": "rp1_malay_11.ogg",
      "sound_type": "default"
    },
    {
      "type": "pause",
      "duration": 2
    },
    {
      "type": "tablet",
      "tablet_type": "image",
      "src": "<main_ingredient_image>"
    },
    {
      "type": "animSound",
      "sound": "rp1_malay_e.ogg",
      "sound_type": "custom"
    },
    {
      "type": "pause",
      "duration": 2
    },
    {
      "type": "tablet",
      "tablet_type": "image",
      "src": "<section_collage>"
    },
    {
      "type": "animSound",
      "sound": "rp1_malay_f.ogg",
      "sound_type": "custom"
    },
    {
      "type": "pause",
      "duration": 10
    },
    {
      "type": "tablet",
      "tablet_type": "image",
      "src": "<correct_section_image>"
    },
    {
      "type": "animSound",
      "sound": "rp1_malay_g.ogg",
      "sound_type": "custom"
    },
    {
      "type": "pause",
      "duration": 2
    },
    {
      "type": "tablet",
      "tablet_type": "image",
      "src": "<correct_section_image>"
    },
    {
      "type": "animSound",
      "sound": "rp1_malay_ga.ogg",
      "sound_type": "custom"
    },
    {
      "type": "animation",
      "src": "cgh-main/animations/roleplay/S3_Walking_Sounds"
    },
    {
      "type": "pause",
      "duration": 1
    },
    {
      "type": "tablet",
      "tablet_type": "image",
      "src": "<first_item_image>"
    },
    {
      "type": "animSound",
      "sound": "rp1_malay_h.ogg",
      "sound_type": "custom"
    },
    {
      "type": "pause",
      "duration": 10
    },
    {
      "type": "animSound",
      "sound": "rp1_malay_i.ogg",
      "sound_type": "custom"
    },
    {
      "type": "pause",
      "duration": 10
    },
    {
      "type": "tablet",
      "tablet_type": "image",
      "src": "red_x.jpg"
    },
    {
      "type": "animSound",
      "sound": "rp1_malay_j.ogg",
      "sound_type": "custom"
    },
    {
      "type": "pause",
      "duration": 6
    },
    {
      "type": "tablet",
      "tablet_type": "image",
      "src": "<second_item_image>"
    },
    {
      "type": "animSound",
      "sound": "rp1_malay_k.ogg",
      "sound_type": "custom"
    },
    {
      "type": "pause",
      "duration": 10
    },
    {
      "type": "animSound",
      "sound": "rp1_malay_l.ogg",
      "sound_type": "custom"
    },
    {
      "type": "pause",
      "duration": 10
    },
    {
      "type": "tablet",
      "tablet_type": "image",
      "src": "check_mark.jpg"
    },
    {
      "type": "animSound",
      "sound": "rp1_malay_m.ogg",
      "sound_type": "custom"
    },
    {
      "type": "pause",
      "duration": 3
    },
    {
      "type": "tablet",
      "tablet_type": "image",
      "src": "cashier.jpg"
    },
    {
      "type": "animSound",
      "sound": "rp1_malay_13.ogg",
      "sound_type": "default"
    },
    {
      "type": "sound",
      "src": "A18-Go-to-Cashier.ogg"
    },
    {
      "type": "pause",
      "duration": 2
    },
    {
      "type": "animSound",
      "sound": "rp1_malay_o.ogg",
      "sound_type": "custom"
    },
    {
      "type": "pause",
      "duration": 10
    },
    {
      "type": "tablet",
      "tablet_type": "text",
      "text": "$<wallet_amount> - $<second_item_cost> = $<change_amount>",
      "font_size": "25vh"
    },
    {
      "type": "animSound",
      "sound": "rp1_malay_p.ogg",
      "sound_type": "custom"
    },
    {
      "type": "pause",
      "duration": 10
    },
    {
      "type": "animSound",
      "sound": "rp1_malay_q.ogg",
      "sound_type": "custom"
    },
    {
      "type": "pause",
      "duration": 2
    },
    {
      "type": "sound",
      "src": "A23-Cashier-Tiller.ogg"
    },
    {
      "type": "tablet",
      "tablet_type": "image",
      "src": "<main_ingredient_image>"
    },
    {
      "type": "animSound",
      "sound": "rp1_malay_14.ogg",
      "sound_type": "default"
    },
    {
      "type": "pause",
      "duration": 2
    },
    {
      "type": "animSound",
      "sound": "rp1_malay_15.ogg",
      "sound_type": "default"
    },
    {
      "type": "pause",
      "duration": 4
    },
    {
      "type": "tablet",
      "tablet_type": "image",
      "src": "HDB.jpg"
    },
    {
      "type": "animSound",
      "text": "^start(cgh-main/animations/roleplay/S3_Walking_Sounds) ^wait(cgh-main/animations/roleplay/S3_Walking_Sounds)",
      "sound": "rp1_malay_r.ogg",
      "sound_type": "custom"
    },
    {
      "type": "pause",
      "duration": 5
    },
    {
      "type": "tablet",
      "tablet_type": "image",
      "src": "kitchen.jpg"
    },
    {
      "type": "animSound",
      "sound": "rp1_malay_16.ogg",
      "sound_type": "default"
    },
    {
      "type": "pause",
      "duration": 5
    },
    {
      "type": "tablet",
      "tablet_type": "image",
      "src": "<main_food_image>"
    },
    {
      "type": "animSound",
      "sound": "rp1_malay_s.ogg",
      "sound_type": "custom"
    },
    {
      "type": "pause",
      "duration": 3
    },
    {
      "type": "animSound",
      "sound": "rp1_malay_sa.ogg",
      "sound_type": "custom"
    },
    {
      "type": "pause",
      "duration": 3
    },
    {
      "type": "tablet",
      "tablet_type": "image",
      "src": "collage_4.jpg"
    },
    {
      "type": "animSound",
      "sound": "rp1_malay_18.ogg",
      "sound_type": "default"
    },
    {
      "type": "pause",
      "duration": 10
    },
    {
      "type": "tablet",
      "tablet_type": "image",
      "src": "rice.jpg"
    },
    {
      "type": "animSound",
      "sound": "rp1_malay_t.ogg",
      "sound_type": "custom"
    },
    {
      "type": "pause",
      "duration": 5
    },
    {
      "type": "tablet",
      "tablet_type": "image",
      "src": "wok_at_tze_char_setting.jpg"
    },
    {
      "type": "animSound",
      "sound": "rp1_malay_u.ogg",
      "sound_type": "custom"
    },
    {
      "type": "pause",
      "duration": 5
    },
    {
      "type": "animSound",
      "sound": "rp1_malay_19.ogg",
      "sound_type": "default"
    },
    {
      "type": "pause",
      "duration": 5
    },
    {
      "type": "animSound",
      "sound": "rp1_malay_20.ogg",
      "sound_type": "default"
    },
    {
      "type": "tablet",
      "tablet_type": "image",
      "src": "oil_pour.jpg"
    },
    {
      "type": "animation",
      "src": "cgh-main/animations/roleplay/S5_pouring"
    },
    {
      "type": "pause",
      "duration": 2
    },
    {
      "type": "tablet",
      "tablet_type": "image",
      "src": "<ingredient_collage>"
    },
    {
      "type": "animSound",
      "sound": "rp1_malay_v.ogg",
      "sound_type": "custom"
    },
    {
      "type": "pause",
      "duration": 10
    },
    {
      "type": "tablet",
      "tablet_type": "image",
      "src": "<correct_ingredient_image>"
    },
    {
      "type": "animSound",
      "sound": "rp1_malay_w.ogg",
      "sound_type": "custom"
    },
    {
      "type": "animation",
      "src": "cgh-main/animations/roleplay/S4_Frying_egg_fried_rice"
    },
    {
      "type": "tablet",
      "tablet_type": "image",
      "src": "<main_food_image>"
    },
    {
      "type": "animSound",
      "sound": "rp1_malay_x.ogg",
      "sound_type": "custom"
    },
    {
      "type": "pause",
      "duration": 5
    },
    {
      "type": "tablet",
      "tablet_type": "image",
      "src": "<main_food_image>"
    },
    {
      "type": "animSound",
      "sound": "rp1_malay_21.ogg",
      "sound_type": "default"
    },
    {
      "type": "pause",
      "duration": 10
    },
    {
      "type": "tablet",
      "tablet_type": "image",
      "src": "wash_hands.jpg"
    },
    {
      "type": "animSound",
      "sound": "rp1_malay_22.ogg",
      "sound_type": "default"
    },
    {
      "type": "pause",
      "duration": 10
    },
    {
      "type": "tablet",
      "tablet_type": "image",
      "src": "wash_hands.jpg"
    },
    {
      "type": "animSound",
      "text": "^start(cgh-main/animations/roleplay/S7_Washing_hands) ^wait(cgh-main/animations/roleplay/S7_Washing_hands)",
      "sound": "rp1_malay_23.ogg",
      "sound_type": "default"
    },
    {
      "type": "pause",
      "duration": 5
    },
    {
      "type": "tablet",
      "tablet_type": "image",
      "src": "<main_food_image>"
    },
    {
      "type": "animSound",
      "sound": "rp1_malay_y.ogg",
      "sound_type": "custom"
    },
    {
      "type": "pause",
      "duration": 5
    },
    {
      "type": "animation",
      "src": "cgh-main/animations/roleplay/S8_Eating"
    },
    {
      "type": "animSound",
      "sound": "rp1_malay_z.ogg",
      "sound_type": "custom"
    },
    {
      "type": "pause",
      "duration": 5
    },
    {
      "type": "animSound",
      "sound": "rp1_malay_za.ogg",
      "sound_type": "custom"
    },
    {
      "type": "pause",
      "duration": 10
    },
    {
      "type": "tablet",
      "tablet_type": "image",
      "src": "empty_plate.jpg"
    },
    {
      "type": "animSound",
      "sound": "rp1_malay_24.ogg",
      "sound_type": "default"
    },
    {
      "type": "pause",
      "duration": 10
    },
    {
      "type": "tablet",
      "tablet_type": "image",
      "src": "<main_food_image>"
    },
    {
      "type": "animSound",
      "sound": "rp1_malay_zb.ogg",
      "sound_type": "custom"
    },
    {
      "type": "pause",
      "duration": 5
    },
    {
      "type": "animSound",
      "text": "^start(animations/Stand/Gestures/Hey_1) ^wait(animations/Stand/Gestures/Hey_1)",
      "sound": "rp1_malay_25.ogg",
      "sound_type": "default"
    },
    {
      "type": "pause",
      "duration": 5
    }
  ]
}